STAT 326 Labs - 1 Sampling Distributions
…
Next, to generate 5000 sample means, we map through the function:

nsim <- 5000      # number of simulations

## code to map through the function. 
## the \(i) syntax says to just repeat the generate_samp_mean function
## nsim times
means <- map_dbl(1:nsim, \(i) generate_samp_mean(mu = mu, sigma = sigma, n = n))

## print some of the 5000 means
## each number represents the sample mean from __one__ sample.
means_df <- tibble(means)
means_df

# A tibble: 5,000 × 1
   means
   <dbl>
 1  9.39
 2  9.84
 3  8.81
 4  9.48
 5  9.59
 6  9.24
 7 11.3 
 8 10.3 
 9  9.88
10  8.53
# ℹ 4,990 more rows
…
