STAT 326 Labs and Projects - 3 Confidence Intervals
…
But, if we want to explore the coverage rate and average interval width, we need to simulate many confidence intervals. Below, we map() through our function nsim times and bind the results together into a data frame at the end:

nsim <- 1000  # the number of simulated CIs to create

many_ci_df <- map(1:nsim,
                  \(i) generate_onesamp_cis(n = n, mu = mu,
                                            sigma = sigma,
                                            alpha = alpha)) |>
  bind_rows()
many_ci_df

# A tibble: 1,000 × 3
   point_est     lb    ub
       <dbl>  <dbl> <dbl>
 1     12.1   6.88   17.3
 2     10.1   3.75   16.5
 3      8.25 -0.100  16.6
 4     12.4   8.91   15.9
 5     13.9  11.3    16.4
 6     11.8   7.38   16.2
 7     10.7   3.79   17.7
 8     12.0   6.47   17.5
 9      9.80  3.84   15.8
10     11.5   7.04   15.9
# ℹ 990 more rows
…
