STAT 326 Labs and Projects - 2 Estimation
…
## set up grid of possible values
intercept <- seq(20, 23, length.out = 50)
slope <- seq(1.6, 1.9, length.out = 50)
sigma <- seq(8.5, 9.5, length.out = 50)

grid <- expand_grid(intercept, slope, sigma)

liks <- pmap_dbl(grid, ~ compute_likelihood(..1, ..2, ..3,
                                            x = mcss_df |> pull(year),
                                            y = mcss_df |> pull(mcss_majors)))

likelihood_df <- grid |> mutate(likelihood = liks)
likelihood_df

# A tibble: 125,000 × 4
   intercept slope sigma likelihood
       <dbl> <dbl> <dbl>      <dbl>
 1        20   1.6  8.5    2.03e-34
 2        20   1.6  8.52   2.06e-34
 3        20   1.6  8.54   2.08e-34
 4        20   1.6  8.56   2.11e-34
 5        20   1.6  8.58   2.14e-34
 6        20   1.6  8.60   2.16e-34
 7        20   1.6  8.62   2.19e-34
 8        20   1.6  8.64   2.21e-34
 9        20   1.6  8.66   2.24e-34
10        20   1.6  8.68   2.26e-34
# ℹ 124,990 more rows
…
