STAT 326 Labs and Projects - 5 Hypothesis Testing
…
We next store the difference in sample means as a value called teststat and each of the sample sizes as n_a and n_u:

teststat <- delay_df |> group_by(Carrier) |>
  summarise(mean_delay = mean(Delay)) |>
  pull(mean_delay) |>
  diff()
## teststat is united delay mean minus american airlines mean

Under the null hypothesis, the distribution of delays is identical for american and united airlines. To reshuffle the delay values randomly across both airlines we can use the code below:

delay_df |>
  mutate(delay_perm = sample(Delay, size = nrow(delay_df), replace = FALSE)) |>
  relocate(delay_perm)

# A tibble: 4,029 × 11
   delay_perm Carrier Delay    ID FlightNo Destination DepartTime Day   Month
        <int> <fct>   <int> <int>    <int> <fct>       <fct>      <fct> <fct>
 1         -6 UA         -1     1      403 DEN         4-8am      Fri   May  
 2        -10 UA        102     2      405 DEN         8-Noon     Fri   May  
 3         -6 UA          4     3      409 DEN         4-8pm      Fri   May  
 4         -4 UA         -2     4      511 ORD         8-Noon     Fri   May  
 5         -7 UA         -3     5      667 ORD         4-8am      Fri   May  
 6         -8 UA          0     6      669 ORD         4-8am      Fri   May  
 7         -1 UA         -5     7      673 ORD         8-Noon     Fri   May  
 8          0 UA          0     8      677 ORD         8-Noon     Fri   May  
 9          0 UA         10     9      679 ORD         Noon-4pm   Fri   May  
10         -3 UA         60    10      681 ORD         Noon-4pm   Fri   May  
# ℹ 4,019 more rows
# ℹ 2 more variables: FlightLength <int>, Delayed30 <fct>
…
Exercise. If we were to repeatedly run the function many times and we were to set delta to be equal to 0, what proportion of p-values would you expect to be less than 0.01?

Now, to calculate empirical power, we need to map through the function we wrote a large number of times, recording a p-value for the test each time we run the function.

n_sim <- 10000
p_vals <- map_dbl(1:n_sim, \(i) compute_twosamp_pval(delta = delta, sigma = sigma, n = n))

And, we will reject the null hypothesis if the p-value we observe from one of the simulations is less than alpha:

emp_power_df <- tibble(p_vals) |>
  mutate(reject = if_else(p_vals <= 0.01,
                          true = 1, false = 0))
emp_power_df

# A tibble: 10,000 × 2
   p_vals reject
    <dbl>  <dbl>
 1 0.854       0
 2 0.788       0
 3 0.421       0
 4 0.370       0
 5 0.215       0
 6 0.403       0
 7 0.582       0
 8 0.0795      0
 9 0.0616      0
10 0.0837      0
# ℹ 9,990 more rows
…
