STAT 326 Labs - 1 Sampling Distributions
…
Next, to generate 5000 sample means, we map through the function:

nsim <- 5000      # number of simulations

## code to map through the function. 
## the \(i) syntax says to just repeat the generate_normal_mean function
## nsim times
means <- map_dbl(1:nsim, \(i) generate_normal_mean(mu = mu, sigma = sigma, n = n))

## print some of the 5000 means
## each number represents the sample mean from __one__ sample.
means_df <- tibble(means)
means_df
#> # A tibble: 5,000 × 1
#>   means
#>   <dbl>
#> 1  9.46
#> 2  9.69
#> 3  9.76
#> 4 11.9 
#> 5 10.7 
#> 6  8.72
#> # ℹ 4,994 more rows
…
## test function once:
generate_exp_mean(lambda = lambda, n = n)
#> [1] 2.833337

nsim <- 5000      # number of simulations

means <- map_dbl(1:nsim, \(i) generate_exp_mean(lambda = lambda, n = n))

## print some of the 5000 means
## each number represents the sample mean from __one__ sample.
means_df <- tibble(means)
means_df
#> # A tibble: 5,000 × 1
#>   means
#>   <dbl>
#> 1  2.15
#> 2  2.90
#> 3  1.97
#> 4  1.87
#> 5  1.80
#> 6  1.60
#> # ℹ 4,994 more rows
…
